Chapter 1 Data Manipulation using dplyr | Data Wrangling with R
…
trafficstops %>%
  group_by(county_name) %>%
  summarize(mean_age = mean(driver_age, na.rm=TRUE))

You can also group by multiple columns:

trafficstops %>% 
  group_by(county_name, driver_race) %>%
  summarize(mean_age = mean(driver_age, na.rm=TRUE))

#> Warning: Factor `driver_race` contains implicit NA, consider using
#> `forcats::fct_explicit_na`

#> # A tibble: 178 x 3
#> # Groups:   county_name [82]
#>    county_name   driver_race mean_age
#>    <fct>         <fct>          <dbl>
#>  1 Adams County  Black           36.2
#>  2 Adams County  White           40.0
#>  3 Alcorn County Black           34.6
#>  4 Alcorn County White           33.6
#>  5 Amite County  Black           37.5
#>  6 Amite County  White           42.1
#>  7 Amite County  <NA>            24  
#>  8 Attala County Black           36.4
#>  9 Attala County White           38.6
#> 10 Benton County Black           34.7
#> # … with 168 more rows

If we wanted to remove the line with NA we could insert a filter() in the chain:

trafficstops %>%
  filter(!is.na(driver_race)) %>% 
  group_by(county_name, driver_race) %>%
  summarize(mean_age = mean(driver_age, na.rm=TRUE))

#> # A tibble: 163 x 3
#> # Groups:   county_name [82]
#>    county_name   driver_race mean_age
#>    <fct>         <fct>          <dbl>
#>  1 Adams County  Black           36.2
#>  2 Adams County  White           40.0
#>  3 Alcorn County Black           34.6
#>  4 Alcorn County White           33.6
#>  5 Amite County  Black           37.5
#>  6 Amite County  White           42.1
#>  7 Attala County Black           36.4
#>  8 Attala County White           38.6
#>  9 Benton County Black           34.7
#> 10 Benton County White           32.0
#> # … with 153 more rows
…
Once the data are grouped, you can also summarize multiple variables at the same
time (and not necessarily on the same variable). For instance, we could add a
column indicating the minimum age in each group (i.e. county):

trafficstops %>%
  filter(!is.na(driver_race)) %>% 
  group_by(county_name, driver_race) %>%
  summarize(mean_age = mean(driver_age, na.rm=TRUE),
            min_age = min(driver_age, na.rm=TRUE))

#> # A tibble: 163 x 4
#> # Groups:   county_name [82]
#>    county_name   driver_race mean_age min_age
#>    <fct>         <fct>          <dbl>   <int>
#>  1 Adams County  Black           36.2      16
#>  2 Adams County  White           40.0      16
#>  3 Alcorn County Black           34.6      17
#>  4 Alcorn County White           33.6      15
#>  5 Amite County  Black           37.5      17
#>  6 Amite County  White           42.1      15
#>  7 Attala County Black           36.4       8
#>  8 Attala County White           38.6      15
#>  9 Benton County Black           34.7      18
#> 10 Benton County White           32.0      18
#> # … with 153 more rows
…
#>              County  FIPS black_pop white_pop bw_pop
#> 1      Jones County 28067     19711     47154  66865
#> 2 Lauderdale County 28075     33893     43482  77375
#> 3       Pike County 28113     21028     18282  39310
#> 4    Hancock County 28045      4172     39686  43858
#> 5     Holmes County 28051     15498      3105  18603
#> 6    Jackson County 28059     30704    101686 132390

In a first step we will use a prevous dplyr command to count all the trafficstops per county.

trafficstops %>% 
  group_by(county_name) %>% 
  summarise(n_stops = n())

#> # A tibble: 82 x 2
#>    county_name      n_stops
#>    <fct>              <int>
#>  1 Adams County         942
#>  2 Alcorn County       3345
#>  3 Amite County        2921
#>  4 Attala County       4203
#>  5 Benton County        214
#>  6 Bolivar County      4526
#>  7 Calhoun County      1658
#>  8 Carroll County      1788
#>  9 Chickasaw County    3869
#> 10 Choctaw County       613
#> # … with 72 more rows
…
