Chapter 2 Data Manipulation using tidyr | Data Wrangling with R
…
Now, to make this long data wide, we use pivot_wider from tidyr to turn the driver gender into columns. In addition to our data table we provide pivot_wider with two arguments: names_from describes which column to use for name of the output column, and values_from tells it from column to get the cell values. We’ll use a pipe so we can ignore the data argument.

violations_wide <- violations %>%
  pivot_wider(names_from = violation, 
              values_from = n) 

violations_wide

#> # A tibble: 82 x 7
#>    county_name `Breaks-Lights-… `Careless drivi… `License-Permit…
#>    <chr>                  <int>            <int>            <int>
#>  1 Adams                      7               48              118
#>  2 Alcorn                    62              100              737
#>  3 Amite                     47               86              370
#>  4 Attala                    99              113              526
#>  5 Benton                     3                9               73
#>  6 Bolivar                   57              139             1034
#>  7 Calhoun                   26               38              383
#>  8 Carroll                   26               40              323
#>  9 Chickasaw                 42               53             1378
#> 10 Choctaw                    8                6               73
#> # … with 72 more rows, and 3 more variables: `Other or unknown` <int>, `Seat
#> #   belt` <int>, Speeding <int>

2.3 Wide to long with pivot_longer

What if we had the opposite problem, and wanted to go from a wide to long
format? For that, we use pivot_longer, which will increase the number of rows and decrease the number of columns. We provide the functino with thee arguments: cols which are the columns we want to pivot into the long format, names_to, which is a string specifying the name of the column to create from the data stored in the column names, and values_to, which is also a string, specifying the name of the column to create from the data stored in cell values.
So, to go backwards from violations_wide, and exclude county_name from the long format, we would do the following:

violations_long <- violations_wide %>%
  pivot_longer(cols = -county_name,        # exclude column with county name
               names_to = "violation",     # name is a string!
               values_to = "n")            # also a string

violations_long

#> # A tibble: 492 x 3
#>    county_name violation                    n
#>    <chr>       <chr>                    <int>
#>  1 Adams       Breaks-Lights-etc            7
#>  2 Adams       Careless driving            48
#>  3 Adams       License-Permit-Insurance   118
#>  4 Adams       Other or unknown            35
#>  5 Adams       Seat belt                  229
#>  6 Adams       Speeding                   505
#>  7 Alcorn      Breaks-Lights-etc           62
#>  8 Alcorn      Careless driving           100
#>  9 Alcorn      License-Permit-Insurance   737
#> 10 Alcorn      Other or unknown           418
#> # … with 482 more rows

We could also have used a specification for what columns to include. This can be
useful if you have a large number of identifying columns, and it’s easier to
specify what to gather than what to leave alone. And if the columns are adjacent to each other, we don’t even need to list them all out – we can use the : operator!

violations_wide %>%
  pivot_longer(cols = `Breaks-Lights-etc`:Speeding,      # this also works
               names_to = "violation", 
               values_to = "n")

#> # A tibble: 492 x 3
#>    county_name violation                    n
#>    <chr>       <chr>                    <int>
#>  1 Adams       Breaks-Lights-etc            7
#>  2 Adams       Careless driving            48
#>  3 Adams       License-Permit-Insurance   118
#>  4 Adams       Other or unknown            35
#>  5 Adams       Seat belt                  229
#>  6 Adams       Speeding                   505
#>  7 Alcorn      Breaks-Lights-etc           62
#>  8 Alcorn      Careless driving           100
#>  9 Alcorn      License-Permit-Insurance   737
#> 10 Alcorn      Other or unknown           418
#> # … with 482 more rows
…
