Chapter 3 Data Visualization with ggplot2 | Data Wrangling with R
…
3.5 Plotting time series data

To make things a little easer we first convert the stop_date column we plan to use to Date format and use the wday function to extract and add a new column to our trafficstops data called wk_day with the weekday for each of these dates. For better understanding we will label the weekdays.

library(lubridate)
trafficstops <- trafficstops %>% 
  mutate(stop_date = ymd(stop_date),
         wk_day = wday(stop_date, label = TRUE))

Let’s calculate number of violation per weekday. We will use count for this, like this:

trafficstops %>%
  count(wk_day, violation) 

#> # A tibble: 42 x 3
#>    wk_day violation                    n
#>    <ord>  <fct>                    <int>
#>  1 Sun    Breaks-Lights-etc          363
#>  2 Sun    Careless driving           804
#>  3 Sun    License-Permit-Insurance  4177
#>  4 Sun    Other or unknown          1588
#>  5 Sun    Seat belt                 2313
#>  6 Sun    Speeding                 16522
#>  7 Mon    Breaks-Lights-etc          337
#>  8 Mon    Careless driving           830
#>  9 Mon    License-Permit-Insurance  4086
#> 10 Mon    Other or unknown          1572
#> # … with 32 more rows
…
