Chapter 1 Data Manipulation using dplyr | Data Wrangling with R
…
dplyr is one part of a larger tidyverse that enables you to work
with data in tidy data formats. “Tidy datasets are easy to manipulate, model and visualise, and have a specific structure: each variable is a column, each observation is a row, and each type of observational unit is a table.” (From Wickham, H. (2014): Tidy Data https://www.jstatsoft.org/article/view/v059i10)

The package dplyr provides convenient tools for the most common data manipulation tasks. It is built to work directly with data frames, which is one of the most common data formats to work with.

To learn more about dplyr after the workshop, you may want to check out the handy data transformation with dplyr cheatsheet.

Let’s begin with loading our sample data into a data frame.

We will be working a small subset of the data from the Stanford Open Policing Project. It contains information about traffic stops in the state of Mississippi during January 2013 to mid-July of 2016.

stops <- read_csv("data/MS_trafficstops_bw_age.csv")
stops

#> # A tibble: 211,211 × 11
#>    id         stop_date  county_name county_fips police_department driver_gender
#>    <chr>      <date>     <chr>             <dbl> <chr>             <chr>        
#>  1 MS-2013-0… 2013-01-01 Jones             28067 Mississippi High… male         
#>  2 MS-2013-0… 2013-01-01 Lauderdale        28075 Mississippi High… male         
#>  3 MS-2013-0… 2013-01-01 Pike              28113 Mississippi High… male         
#>  4 MS-2013-0… 2013-01-01 Hancock           28045 Mississippi High… male         
#>  5 MS-2013-0… 2013-01-01 Holmes            28051 Mississippi High… male         
#>  6 MS-2013-0… 2013-01-01 Jackson           28059 Mississippi High… female       
#>  7 MS-2013-0… 2013-01-01 Jackson           28059 Mississippi High… female       
#>  8 MS-2013-0… 2013-01-01 Grenada           28043 Mississippi High… female       
#>  9 MS-2013-0… 2013-01-01 Holmes            28051 Mississippi High… male         
#> 10 MS-2013-0… 2013-01-01 Holmes            28051 Mississippi High… male         
#> # ℹ 211,201 more rows
#> # ℹ 5 more variables: driver_birthdate <date>, driver_race <chr>,
#> #   officer_id <chr>, driver_age <dbl>, violation <chr>
…
1.2 Selecting columns and filtering rows

To select columns of a data frame with dplyr, use select(). The first argument to this function is the data frame (stops), and the subsequent arguments are the columns to keep. You may have done something similar in the past using subsetting. select() is essentially doing the same thing as subsetting, using a package (dplyr) instead of R’s base functions.

select(stops, county_name, driver_gender, driver_birthdate, driver_race)

# this is the same as subsetting in base R:
stops[c("county_name", "driver_gender", "driver_birthdate","driver_race")]

Alternatively, if you are selecting columns adjacent to each other, you can use a : to select a range of columns, read as “select columns from ___ to ___.”

select(stops, county_name, driver_gender:driver_race)

#> # A tibble: 211,211 × 4
#>    county_name driver_gender driver_birthdate driver_race
#>    <chr>       <chr>         <date>           <chr>      
#>  1 Jones       male          1950-06-14       Black      
#>  2 Lauderdale  male          1967-04-06       Black      
#>  3 Pike        male          1974-04-15       Black      
#>  4 Hancock     male          1981-03-23       White      
#>  5 Holmes      male          1992-08-03       White      
#>  6 Jackson     female        1960-05-02       White      
#>  7 Jackson     female        1953-03-16       White      
#>  8 Grenada     female        1993-06-14       White      
#>  9 Holmes      male          1947-12-11       White      
#> 10 Holmes      male          1984-07-14       White      
#> # ℹ 211,201 more rows

It is worth knowing that dplyr is backed by another package with a number of helper functions, which provide convenient functions to select columns based on their names. For example:

select(stops, starts_with("driver"))

#> # A tibble: 211,211 × 4
#>    driver_gender driver_birthdate driver_race driver_age
#>    <chr>         <date>           <chr>            <dbl>
#>  1 male          1950-06-14       Black               63
#>  2 male          1967-04-06       Black               46
#>  3 male          1974-04-15       Black               39
#>  4 male          1981-03-23       White               32
#>  5 male          1992-08-03       White               20
#>  6 female        1960-05-02       White               53
#>  7 female        1953-03-16       White               60
#>  8 female        1993-06-14       White               20
#>  9 male          1947-12-11       White               65
#> 10 male          1984-07-14       White               28
#> # ℹ 211,201 more rows

Other examles are: ends_with(), contains(), last_col() and more. Check out the tidyselect reference for more.

To choose rows based on specific criteria, we can use the filter() function. The argument after the dataframe is the condition we want our resulting data frame to adhere to.

filter(stops, county_name == "Yazoo")

#> # A tibble: 3,528 × 11
#>    id         stop_date  county_name county_fips police_department driver_gender
#>    <chr>      <date>     <chr>             <dbl> <chr>             <chr>        
#>  1 MS-2013-0… 2013-01-02 Yazoo             28163 Mississippi High… male         
#>  2 MS-2013-0… 2013-01-02 Yazoo             28163 Mississippi High… female       
#>  3 MS-2013-0… 2013-01-02 Yazoo             28163 Mississippi High… male         
#>  4 MS-2013-0… 2013-01-02 Yazoo             28163 Mississippi High… female       
#>  5 MS-2013-0… 2013-01-02 Yazoo             28163 Mississippi High… male         
#>  6 MS-2013-0… 2013-01-03 Yazoo             28163 Mississippi High… male         
#>  7 MS-2013-0… 2013-01-03 Yazoo             28163 Mississippi High… male         
#>  8 MS-2013-0… 2013-01-04 Yazoo             28163 Mississippi High… male         
#>  9 MS-2013-0… 2013-01-04 Yazoo             28163 Mississippi High… male         
#> 10 MS-2013-0… 2013-01-04 Yazoo             28163 Mississippi High… female       
#> # ℹ 3,518 more rows
#> # ℹ 5 more variables: driver_birthdate <date>, driver_race <chr>,
#> #   officer_id <chr>, driver_age <dbl>, violation <chr>
…
#> # A tibble: 4 × 11
#>   id          stop_date  county_name county_fips police_department driver_gender
#>   <chr>       <date>     <chr>             <dbl> <chr>             <chr>        
#> 1 MS-2013-33… 2013-06-18 Yazoo             28163 Mississippi High… male         
#> 2 MS-2014-36… 2014-07-31 Yazoo             28163 Mississippi High… female       
#> 3 MS-2015-01… 2015-01-10 Yazoo             28163 Mississippi High… male         
#> 4 MS-2015-50… 2015-10-16 Yazoo             28163 Mississippi High… female       
#> # ℹ 5 more variables: driver_birthdate <date>, driver_race <chr>,
#> #   officer_id <chr>, driver_age <dbl>, violation <chr>

In an “or” statement, observations must meet at least one of the specified conditions. To form “or” statements we use the logical operator for “or”, which is the vertical bar (|):

filter(stops, county_name == "Yazoo" | county_name == "Adams")

#> # A tibble: 4,470 × 11
#>    id         stop_date  county_name county_fips police_department driver_gender
#>    <chr>      <date>     <chr>             <dbl> <chr>             <chr>        
#>  1 MS-2013-0… 2013-01-02 Yazoo             28163 Mississippi High… male         
#>  2 MS-2013-0… 2013-01-02 Yazoo             28163 Mississippi High… female       
#>  3 MS-2013-0… 2013-01-02 Yazoo             28163 Mississippi High… male         
#>  4 MS-2013-0… 2013-01-02 Yazoo             28163 Mississippi High… female       
#>  5 MS-2013-0… 2013-01-02 Yazoo             28163 Mississippi High… male         
#>  6 MS-2013-0… 2013-01-03 Yazoo             28163 Mississippi High… male         
#>  7 MS-2013-0… 2013-01-03 Yazoo             28163 Mississippi High… male         
#>  8 MS-2013-0… 2013-01-04 Yazoo             28163 Mississippi High… male         
#>  9 MS-2013-0… 2013-01-04 Yazoo             28163 Mississippi High… male         
#> 10 MS-2013-0… 2013-01-04 Yazoo             28163 Mississippi High… female       
#> # ℹ 4,460 more rows
#> # ℹ 5 more variables: driver_birthdate <date>, driver_race <chr>,
#> #   officer_id <chr>, driver_age <dbl>, violation <chr>
…
rows with highest or lowest values of a variable:

slice_min(stops, driver_age) # likewise slice_max()

random rows:

slice_sample(stops, n = 5) # number of rows to select

slice_sample(stops, prop = .0001) # fraction of rows to select

To sort rows by variables use the arrange() function:

arrange(stops, county_name, stop_date)

#> # A tibble: 211,211 × 11
#>    id         stop_date  county_name county_fips police_department driver_gender
#>    <chr>      <date>     <chr>             <dbl> <chr>             <chr>        
#>  1 MS-2013-0… 2013-02-09 Adams             28001 Mississippi High… male         
#>  2 MS-2013-1… 2013-03-02 Adams             28001 Mississippi High… female       
#>  3 MS-2013-1… 2013-03-16 Adams             28001 Mississippi High… female       
#>  4 MS-2013-1… 2013-03-20 Adams             28001 Mississippi High… female       
#>  5 MS-2013-1… 2013-04-06 Adams             28001 Mississippi High… female       
#>  6 MS-2013-2… 2013-04-13 Adams             28001 Mississippi High… female       
#>  7 MS-2013-2… 2013-04-19 Adams             28001 Mississippi High… female       
#>  8 MS-2013-2… 2013-04-21 Adams             28001 Mississippi High… female       
#>  9 MS-2013-2… 2013-04-24 Adams             28001 Mississippi High… male         
#> 10 MS-2013-2… 2013-04-24 Adams             28001 Mississippi High… male         
#> # ℹ 211,201 more rows
#> # ℹ 5 more variables: driver_birthdate <date>, driver_race <chr>,
#> #   officer_id <chr>, driver_age <dbl>, violation <chr>
…
Figure 1.1: Driver Birth Cohorts

Mutate can also be used in conjunction with logical conditions. For example, we could create a new column, where we assign everyone born after the year 2000 to a group “millenial” and everyone before to “pre-millenial”.

In order to do this we take advantage of the ifelse function:

ifelse(a_logical_condition, if_true_return_this, if_false_return_this)

In conjunction with mutate, this works like this:

stops %>% 
  mutate(cohort = ifelse(year(driver_birthdate) < 2000, "pre-millenial", "millenial")) %>% 
  select(driver_birthdate, cohort)

#> # A tibble: 211,211 × 2
#>    driver_birthdate cohort       
#>    <date>           <chr>        
#>  1 1950-06-14       pre-millenial
#>  2 1967-04-06       pre-millenial
#>  3 1974-04-15       pre-millenial
#>  4 1981-03-23       pre-millenial
#>  5 1992-08-03       pre-millenial
#>  6 1960-05-02       pre-millenial
#>  7 1953-03-16       pre-millenial
#>  8 1993-06-14       pre-millenial
#>  9 1947-12-11       pre-millenial
#> 10 1984-07-14       pre-millenial
#> # ℹ 211,201 more rows
…
Recall that is.na() is a function that determines whether something is an NA. The ! symbol negates the result, so we’re asking for everything that is not an NA.

You can also group by multiple columns:

stops %>% 
  filter(!is.na(driver_race)) %>%
  group_by(county_name, driver_race) %>%
  summarize(mean_age = mean(driver_age, na.rm=TRUE))

#> # A tibble: 163 × 3
#> # Groups:   county_name [82]
#>    county_name driver_race mean_age
#>    <chr>       <chr>          <dbl>
#>  1 Adams       Black           36.2
#>  2 Adams       White           40.0
#>  3 Alcorn      Black           34.6
#>  4 Alcorn      White           33.6
#>  5 Amite       Black           37.5
#>  6 Amite       White           42.1
#>  7 Attala      Black           36.4
#>  8 Attala      White           38.6
#>  9 Benton      Black           34.7
#> 10 Benton      White           32.0
#> # ℹ 153 more rows

Note that the output is a “grouped” tibble, grouped by county_name. What it means is that the tibble “remembers” the grouping of the counties, so for any operation you would do after that it will take that grouping into account.

To obtain an “ungrouped” tibble, you can use the ungroup function1:

stops %>% 
  filter(!is.na(driver_race)) %>%
  group_by(county_name, driver_race) %>%
  summarize(mean_age = mean(driver_age, na.rm=TRUE)) %>% 
  ungroup()

#> # A tibble: 163 × 3
#>    county_name driver_race mean_age
#>    <chr>       <chr>          <dbl>
#>  1 Adams       Black           36.2
#>  2 Adams       White           40.0
#>  3 Alcorn      Black           34.6
#>  4 Alcorn      White           33.6
#>  5 Amite       Black           37.5
#>  6 Amite       White           42.1
#>  7 Attala      Black           36.4
#>  8 Attala      White           38.6
#>  9 Benton      Black           34.7
#> 10 Benton      White           32.0
#> # ℹ 153 more rows

Once the data are grouped, you can also summarize multiple variables at the same
time (and not necessarily on the same variable). For instance, we could add a
column indicating the standard deviation for the age in each group:

stops %>%
  filter(!is.na(driver_race)) %>% 
  group_by(county_name, driver_race) %>%
  summarize(mean_age = mean(driver_age, na.rm=TRUE),
            sd_age = sd(driver_age, na.rm=TRUE))

#> # A tibble: 163 × 4
#> # Groups:   county_name [82]
#>    county_name driver_race mean_age sd_age
#>    <chr>       <chr>          <dbl>  <dbl>
#>  1 Adams       Black           36.2  14.9 
#>  2 Adams       White           40.0  15.8 
#>  3 Alcorn      Black           34.6  12.9 
#>  4 Alcorn      White           33.6  13.6 
#>  5 Amite       Black           37.5  13.4 
#>  6 Amite       White           42.1  14.9 
#>  7 Attala      Black           36.4  13.8 
#>  8 Attala      White           38.6  15.5 
#>  9 Benton      Black           34.7  12.0 
#> 10 Benton      White           32.0   9.50
#> # ℹ 153 more rows

It is sometimes useful to rearrange the result of a query to inspect the values. For that we use arrange(). To sort in descending order, we need to add the desc() function. For instance, we can sort on mean_age to put the groups with the highest mean age first:

stops %>%
  filter(!is.na(driver_race)) %>% 
  group_by(county_name, driver_race) %>%
  summarize(mean_age = mean(driver_age, na.rm=TRUE),
            sd_age = sd(driver_age, na.rm=TRUE)) %>% 
  arrange(desc(mean_age))

#> # A tibble: 163 × 4
#> # Groups:   county_name [82]
#>    county_name driver_race mean_age sd_age
#>    <chr>       <chr>          <dbl>  <dbl>
#>  1 Amite       White           42.1   14.9
#>  2 Quitman     White           42.0   16.6
#>  3 Sharkey     White           41.1   14.2
#>  4 Coahoma     White           40.7   15.7
#>  5 Warren      White           40.5   15.1
#>  6 Claiborne   White           40.5   15.4
#>  7 Issaquena   White           40.4   13.7
#>  8 Yazoo       White           40.3   15.1
#>  9 Adams       White           40.0   15.8
#> 10 Smith       Black           39.9   14.5
#> # ℹ 153 more rows
…
Challenge

Which 5 counties were the ones with the most stops in 2013?
Hint: use the year() function from lubridate.

1.7 Joining two tables

It is not uncommon that we have our data spread out in different tables and need to bring those together for analysis. In this example we will combine the numbers of stops for black and white drivers per county together with the numbers of the black and white total population for these counties. The population data are the estimated values of the 5 year average from the 2011-2015 American Community Survey (ACS):

acs <- read_csv("data/MS_acs2015_bw.csv")
acs

#> # A tibble: 82 × 5
#>    County      FIPS black_pop white_pop bw_pop
#>    <chr>      <dbl>     <dbl>     <dbl>  <dbl>
#>  1 Jones      28067     19711     47154  66865
#>  2 Lauderdale 28075     33893     43482  77375
#>  3 Pike       28113     21028     18282  39310
#>  4 Hancock    28045      4172     39686  43858
#>  5 Holmes     28051     15498      3105  18603
#>  6 Jackson    28059     30704    101686 132390
#>  7 Grenada    28043      9417     11991  21408
#>  8 Scott      28123     10562     16920  27482
#>  9 Wayne      28153      8015     12154  20169
#> 10 Bolivar    28011     21648     11197  32845
#> # ℹ 72 more rows

In a first step we count all the stops per county.

stops %>% 
  count(county_name, name = "n_stops") 

#> # A tibble: 82 × 2
#>    county_name n_stops
#>    <chr>         <int>
#>  1 Adams           942
#>  2 Alcorn         3345
#>  3 Amite          2921
#>  4 Attala         4203
#>  5 Benton          214
#>  6 Bolivar        4526
#>  7 Calhoun        1658
#>  8 Carroll        1788
#>  9 Chickasaw      3869
#> 10 Choctaw         613
#> # ℹ 72 more rows

We will then pipe this into our next operation where we bring the two tables together. We will use left_join, which returns all rows from the left table, and all columns from the left and the right table. As ID, which uniquely identifies the corresponding records in each table we use the County names.

stops %>% 
  count(county_name, name = "n_stops") %>% 
  left_join(acs, by = c("county_name" = "County")) 

#> # A tibble: 82 × 6
#>    county_name n_stops  FIPS black_pop white_pop bw_pop
#>    <chr>         <int> <dbl>     <dbl>     <dbl>  <dbl>
#>  1 Adams           942 28001     17757     12856  30613
#>  2 Alcorn         3345 28003      4281     31563  35844
#>  3 Amite          2921 28005      5416      7395  12811
#>  4 Attala         4203 28007      8194     10649  18843
#>  5 Benton          214 28009      3078      5166   8244
#>  6 Bolivar        4526 28011     21648     11197  32845
#>  7 Calhoun        1658 28013      3991     10103  14094
#>  8 Carroll        1788 28015      3470      6702  10172
#>  9 Chickasaw      3869 28017      7549      9522  17071
#> 10 Choctaw         613 28019      2596      5661   8257
#> # ℹ 72 more rows
…
