Chapter 2 Data Manipulation using tidyr | Data Wrangling with R
…
Is trafficstops in a long or wide format?

2.2 Long to Wide with pivot_wider

Now let’s see this in action. First, using dplyr, let’s create a data frame
with the mean age of each driver by gender and county:

trafficstops_ma <- trafficstops %>%
    filter(!is.na(driver_gender)) %>%
    group_by(county_name, driver_gender) %>%
    summarize(mean_age = mean(driver_age, na.rm = TRUE))

trafficstops_ma

#> # A tibble: 164 x 3
#> # Groups:   county_name [82]
#>    county_name   driver_gender mean_age
#>    <fct>         <fct>            <dbl>
#>  1 Adams County  female            36.7
#>  2 Adams County  male              38.4
#>  3 Alcorn County female            33.3
#>  4 Alcorn County male              34.1
#>  5 Amite County  female            38.3
#>  6 Amite County  male              40.3
#>  7 Attala County female            36.7
#>  8 Attala County male              38.1
#>  9 Benton County female            32.1
#> 10 Benton County male              34.4
#> # … with 154 more rows

Now, to make this long data wide, we use pivot_wider from tidyr to turn the driver gender into columns. In addition to our data table we provide pivot_wider with two arguments: names_from describes which column to use for name of the output column, and values_from tells it from column to get the cell values. We’ll use a pipe so we can ignore the data argument.

trafficstops_ma_wide <- trafficstops_ma %>%
  pivot_wider(names_from = driver_gender, 
              values_from = mean_age) 

trafficstops_ma_wide

#> # A tibble: 82 x 3
#> # Groups:   county_name [82]
#>    county_name      female  male
#>    <fct>             <dbl> <dbl>
#>  1 Adams County       36.7  38.4
#>  2 Alcorn County      33.3  34.1
#>  3 Amite County       38.3  40.3
#>  4 Attala County      36.7  38.1
#>  5 Benton County      32.1  34.4
#>  6 Bolivar County     33.2  36.3
#>  7 Calhoun County     33.3  34.8
#>  8 Carroll County     33.8  36.0
#>  9 Chickasaw County   33.2  34.6
#> 10 Choctaw County     35.8  36.8
#> # … with 72 more rows
…
2.3 Wide to long with pivot_longer

What if we had the opposite problem, and wanted to go from a wide to long
format? For that, we use pivot_longer, which will increase the number of rows and decrease the number of columns. We provide the functino with thee arguments: cols which are the columns we want to pivot into the long format, names_to, which is a string specifying the name of the column to create from the data stored in the column names, and values_to, which is also a string, specifying the name of the column to create from the data stored in cell values.
So, to go backwards from trafficstops_ma_wide, and exclude county_name from the long, we would do the following:

trafficstops_ma_long <- trafficstops_ma_wide %>%
  pivot_longer(cols = -county_name, 
               names_to = "driver_gender", # name is a string!
               values_to = "mean_age")     # also a string

trafficstops_ma_long

#> # A tibble: 164 x 3
#> # Groups:   county_name [82]
#>    county_name   driver_gender mean_age
#>    <fct>         <chr>            <dbl>
#>  1 Adams County  female            36.7
#>  2 Adams County  male              38.4
#>  3 Alcorn County female            33.3
#>  4 Alcorn County male              34.1
#>  5 Amite County  female            38.3
#>  6 Amite County  male              40.3
#>  7 Attala County female            36.7
#>  8 Attala County male              38.1
#>  9 Benton County female            32.1
#> 10 Benton County male              34.4
#> # … with 154 more rows

We could also have used a specification for what columns to include. This can be
useful if you have a large number of identifying columns, and it’s easier to
specify what to gather than what to leave alone. And if the columns are adjacent to each other, we don’t even need to list them all out – we can use the : operator!

trafficstops_ma_wide %>%
  pivot_longer(cols = male:female,      # this also works
               names_to = "driver_gender", 
               values_to = "mean_age")

#> # A tibble: 164 x 3
#> # Groups:   county_name [82]
#>    county_name   driver_gender mean_age
#>    <fct>         <chr>            <dbl>
#>  1 Adams County  male              38.4
#>  2 Adams County  female            36.7
#>  3 Alcorn County male              34.1
#>  4 Alcorn County female            33.3
#>  5 Amite County  male              40.3
#>  6 Amite County  female            38.3
#>  7 Attala County male              38.1
#>  8 Attala County female            36.7
#>  9 Benton County male              34.4
#> 10 Benton County female            32.1
#> # … with 154 more rows
…
